	IL001	IL002	IL003	IL004	IL005	IL006	IL007	IL008	IL009	IL010	IL011	IL012	IL013	IL014	IL014_2	IL015	IL016	IL017	IL018	IL019	IL020	IL021	IL022	IL023	IL024	IL025	IL026	IL027	IL028	IL029	IL030	IL031	IL032	IL033	IL034	IL035	IL036	IL037	IL038	IL039	IL040	IL042	IL043	IL044	IL045	IL046	IL047	IL048	IL049	IL050	IL051	IL051_2	IL052	IL053	IL055	IL056	IL059	IL060	IL061	IL062	IL063	IL065	IL066	IL067	IL069	IL070	IL071	IL072	IL073	IL075	IL076	IL077	IL078	IL079	IL082	IL084	IL086	IL087	IL088	IL094	IL095	IL096	IL097	IL098	IL099	IL100	IL101	IL102	IL103	IL104	IL105	IL106	IL107	IL108	IL109	IL110	IL111	IL112	IL113	IL114	IL115	IL116	IL117	IL118	IL119	IL120	IL121	IL122
IL001	14263	
IL002	3568	9632	
IL003	3659	8031	10003	
IL004	3825	7203	7769	10596	
IL005	3771	7625	7784	7931	12271	
IL006	3516	7551	8090	7228	7568	10087	
IL007	3472	6963	7537	7802	7199	7017	9459	
IL008	3653	7917	7294	7043	7671	7270	6655	10198	
IL009	3854	7650	8099	8671	9141	7727	7810	7693	13218	
IL010	3812	7666	7801	7361	8098	7791	6977	7838	8056	11174	
IL011	3790	7699	8163	8599	9349	7750	7770	7550	11294	8119	13110	
IL012	3107	2727	2765	2819	2797	2689	2680	2718	2848	2957	2879	10311	
IL013	3457	6711	7131	7703	7153	6727	7065	6408	7682	6812	7880	2724	10442	
IL014	3387	7082	7842	7623	7298	7093	7234	6554	7871	6975	8061	2690	7168	9383	
IL014_2	3609	7539	8370	8203	7821	7539	7674	6987	8431	7497	8604	2773	7524	8902	10144	
IL015	3518	6793	7240	7835	7246	6804	7205	6485	7806	6896	7947	2724	9261	7240	7636	10286	
IL016	3440	7791	7805	6993	7362	7245	6795	7753	7500	7508	7477	2689	6518	6938	7333	6592	10670	
IL017	4086	8677	8896	8252	8613	8306	7664	8959	8802	8746	8718	2950	7287	7752	8411	7417	8688	15017	
IL018	3708	8125	9308	7849	7874	8173	7580	7362	8166	7889	8279	2782	7295	7924	8456	7265	7902	9020	11009	
IL019	3811	7154	7805	8928	7888	7189	7756	6858	9063	7423	8932	2842	7840	7717	8340	7983	6911	8303	7878	18398	
IL020	3585	7167	7776	7979	7388	7188	8515	6759	7979	7196	8123	2756	7376	7573	8007	7483	6964	7898	7867	8099	12176	
IL021	3579	7369	7559	7531	9551	7328	6994	7318	8237	7801	8156	2749	7005	7101	7548	7091	7145	8099	7640	8374	7257	11921	
IL022	3370	7019	7141	7067	9059	6954	6651	6933	7545	7322	7710	2652	6704	6819	7154	6755	6878	8073	7254	7087	6929	8935	12909	
IL023	3372	6927	7199	7074	7259	7058	6761	6872	7462	7285	7650	2650	6910	6852	7195	6772	7093	8809	7484	7203	7004	7123	7543	13949	
IL024	3647	7613	8236	7828	8047	7572	7360	7315	8384	7634	8394	2762	7022	7478	7988	7128	7408	8547	8281	7925	7514	7792	7048	7025	10828	
IL025	3366	6426	6935	8443	7729	6484	7124	6238	8708	6472	8616	2607	7056	7091	7532	7172	6311	7125	6974	8929	7244	7506	6301	6426	7713	12894	
IL026	3475	7283	8033	7625	8117	7357	7691	6757	8592	7187	8831	2708	7054	7587	7988	7128	7014	7871	8088	7791	7987	7450	6813	6943	8157	8269	11135	
IL027	3343	7505	7632	6849	7437	7169	6700	7520	7520	7244	7667	2635	6431	6985	7319	6514	7525	8240	7726	6846	6906	7052	6758	6735	7470	6433	7157	9320	
IL028	3499	7293	7479	7153	7567	7348	6776	7254	8084	7740	8152	2746	6691	6905	7285	6760	7094	8046	7581	7109	6989	7436	7065	6932	7344	6460	6988	6949	12048	
IL029	3469	7427	7994	7455	7442	7369	7160	7002	7701	7370	7784	2681	6881	7328	7741	6989	7195	8114	8123	7569	7361	7282	6910	6911	8736	6725	7396	7182	7132	9520	
IL030	3299	6747	6985	6919	7192	6873	6599	6681	7372	7034	7465	2617	6524	6716	7020	6614	6645	7289	7042	6920	7036	6971	6620	8147	6933	6492	6941	6620	6769	6672	10457	
IL031	3373	6458	6986	8373	7766	6543	7108	6183	8474	6531	8838	2617	7155	7226	7624	7229	6337	7109	7035	8297	7359	7169	6422	6512	7686	9290	8302	6506	6556	6773	6565	11245	
IL032	3336	6428	6890	8099	7186	6448	7053	6170	7927	6427	7975	2567	7024	7034	7461	7108	6291	7076	6945	8071	7259	6989	6348	6433	7405	8247	7530	6305	6437	6709	6407	8435	9932	
IL033	3358	6877	7115	7024	7173	6965	6708	6846	7386	7160	7444	2635	6611	6727	7073	6663	6912	7482	7202	7022	6861	6980	6700	8879	6959	6403	6827	6649	6827	6816	8024	6438	6372	11171	
IL034	3363	7260	7841	6923	7367	7227	6737	6831	7536	7084	7751	2622	6531	7123	7454	6587	7137	7874	7907	7032	7015	6963	6641	6684	7405	6613	7508	7189	6804	7094	6568	6728	6469	6591	9205	
IL035	3529	7191	7325	6827	7549	7269	6579	7282	7490	8454	7692	2931	6686	6685	7069	6576	7640	8162	7661	7046	7824	7423	7268	7566	7166	6105	6876	6908	7547	7036	6964	6229	6094	6907	6800	20523	
IL036	3685	7014	7619	8612	7709	7030	7626	6673	8479	7157	8701	2775	7701	7625	8190	7837	6804	7934	7677	8965	7973	7355	6890	7014	7658	7942	7758	6771	6947	7299	6841	8095	7887	6902	6960	6787	10375	
IL037	3601	8118	8259	7406	7721	7700	7143	8022	7860	7828	7959	2773	6898	7291	7718	6991	8037	9636	8346	7481	8678	7569	7354	8001	7800	6617	7528	7719	7381	7603	7136	6721	6597	6995	7394	8364	7249	12552	
IL038	3728	8163	7559	7221	7905	7489	6810	9136	7863	8156	7943	2804	6675	6842	7309	6798	8032	9511	7740	7263	7073	7631	7334	7490	7475	6357	7002	7758	7470	7267	6891	6419	6343	7035	7089	7715	7019	8652	10786	
IL039	3437	6582	7099	7969	6981	6610	7236	6303	7712	6657	7788	2663	7255	7128	7543	7368	6408	7345	7131	8221	7500	6828	6524	6626	7084	7315	7085	6355	6517	6885	6426	7396	7295	6531	6438	6364	7965	6788	6559	9713	
IL040	3668	6917	7450	8518	7429	6921	7539	6681	8263	6991	8171	2731	7457	7323	7883	7600	6701	7868	7503	8595	7887	7294	6685	6791	7634	7963	7511	6562	6841	7138	6749	7920	7829	6753	6693	6643	9145	7209	6853	7771	10366	
IL042	3619	7283	7327	7020	7758	7233	6704	7418	8397	7814	8430	2757	6549	6669	7092	6662	7165	8394	7416	7077	8480	7466	7836	7244	7266	6237	6838	6975	7899	7050	6937	6320	6224	6849	6761	8450	6836	8660	7708	6430	6904	13917	
IL043	2987	6946	7860	6485	6635	6964	6528	6198	6885	6508	6962	2471	6221	6995	7223	6236	6811	7258	7894	6481	6731	6483	6256	6309	7097	6069	7073	6800	6477	6974	6214	6179	6029	6226	6997	6322	6424	7072	6371	6073	6273	6247	8227	
IL044	3687	7533	7981	8297	8159	7601	7593	7341	10089	7946	10533	2890	7732	7858	8301	7811	7495	9407	8342	8606	8268	8217	8109	8596	8022	7687	7914	7284	8218	7716	7438	7841	7610	7298	7310	8282	8348	8724	8123	7671	8127	8700	6793	15302	
IL045	6511	3590	3697	3785	3768	3532	3485	3590	3835	3824	3857	3192	3533	3508	3683	3601	3459	4026	3718	3859	3637	3629	3459	3462	3660	3368	3554	3393	3543	3524	3345	3422	3371	3421	3437	3615	3756	3667	3763	3488	3666	3638	3080	3786	12791	
IL046	4953	3605	3715	3834	3811	3558	3511	3628	3871	3856	3908	3253	3566	3540	3724	3616	3478	4078	3757	3933	3676	3655	3472	3494	3677	3419	3585	3406	3559	3545	3379	3447	3398	3440	3469	3616	3804	3681	3785	3535	3723	3660	3089	3863	7283	12310	
IL047	3667	6940	7426	8082	7500	6976	7357	6670	8022	7130	8190	2801	9468	7391	7831	9541	6731	7734	7470	8319	7666	7803	6930	6939	7803	7959	7746	6661	6964	7156	6823	7972	7685	6824	6828	6741	8127	7162	6984	7541	8045	6881	6353	8351	3735	3775	11772	
IL048	3647	7023	7507	8196	8508	7046	7384	6732	9100	7163	9529	2795	9570	7623	8083	9655	6797	7795	7551	8562	7730	7481	7027	7030	7870	8601	8598	6997	7019	7219	6968	8762	7901	6877	7229	6869	8388	7253	7045	7631	7958	6929	6537	8234	3718	3753	10060	12746	
IL049	4521	3314	3426	3517	3493	3274	3225	3374	3558	3528	3534	2948	3250	3218	3399	3293	3266	3774	3451	3550	3349	3342	3212	3225	3396	3168	3295	3141	3285	3245	3098	3178	3141	3149	3184	3400	3460	3386	3476	3224	3418	3406	2844	3482	7278	7302	3412	3432	10488	
IL050	4645	3423	3538	3649	3618	3369	3329	3459	3669	3667	3663	2998	3347	3324	3510	3402	3294	3892	3551	3678	3459	3446	3264	3286	3499	3224	3384	3216	3364	3356	3175	3247	3201	3256	3272	3411	3569	3476	3578	3328	3526	3496	2918	3586	7465	7539	3545	3520	8168	10895	
IL051	4082	2881	2940	2939	2938	2855	2811	2873	2974	2969	3009	2741	2876	2891	2948	2908	2841	3047	2956	2969	2935	2923	2840	2818	2901	2751	2885	2806	2854	2879	2777	2802	2748	2800	2811	2886	2936	2934	2955	2822	2871	2868	2658	3008	4235	5824	2941	2964	3718	3790	12279	
IL051_2	5173	3547	3650	3754	3731	3479	3448	3553	3789	3784	3816	3154	3511	3476	3641	3560	3444	3989	3679	3822	3622	3602	3429	3418	3598	3340	3521	3363	3482	3509	3309	3396	3324	3364	3400	3567	3725	3649	3739	3466	3636	3587	3050	3771	5317	7190	3700	3684	4642	4811	11859	14977	
IL052	4215	3868	3989	4156	4115	3791	3771	3903	4165	4181	4216	3181	3817	3732	3981	3879	3709	4453	4034	4231	3927	3915	3850	3718	3956	3620	3809	3630	3817	3776	3571	3679	3578	3672	3694	3917	4076	3937	4072	3770	3987	4009	3255	4155	4236	4302	4056	4041	3935	4066	3262	4223	16774	
IL053	3910	3625	3737	3842	3807	3558	3539	3644	3863	3887	3906	2979	3579	3509	3728	3628	3487	4075	3758	3879	3664	3668	3483	3476	3693	3410	3560	3419	3583	3547	3361	3452	3359	3436	3466	3637	3788	3692	3795	3525	3703	3668	3107	3811	3941	3992	3762	3758	3641	3760	3141	3937	8709	11620	
IL055	3656	8253	8497	7645	7950	8026	7295	8101	8114	8013	8250	2806	7056	7498	7967	7136	8028	9163	8606	7740	7588	7769	7471	7328	7994	6814	7670	7927	7666	7792	7055	6869	6768	7141	7611	7563	7492	8642	8437	6980	7298	7598	7226	8180	3709	3754	7360	7472	3446	3545	2958	3688	4026	3775	13997	
IL056	3551	7665	8076	7208	7572	7660	6990	7264	7708	7840	7850	2726	6800	7278	7686	6879	7366	8320	8186	7261	7265	7591	7089	7037	7859	6665	7481	7268	7374	7569	6874	6740	6602	6985	7303	7440	7153	7722	7561	6672	6999	7284	7057	7818	3610	3643	7298	7184	3315	3442	2905	3583	3882	3642	8025	9895	
IL059	3116	6852	6791	6936	6952	6596	6653	6939	7320	6642	7442	2537	6648	6829	7053	6717	6722	7329	6827	6989	6892	6774	6669	6598	6813	6520	6776	6779	6566	6678	6425	6647	6547	6408	6504	6477	6906	7166	7185	6612	6737	6502	6193	7331	3209	3207	6820	7023	2975	3024	2723	3180	3417	3219	7968	6685	20393	
IL060	4128	8692	8918	8320	8633	8345	7687	9070	8873	8720	8723	2931	7287	7770	8406	7444	8492	11770	9048	8285	7963	8273	7572	7571	8739	7338	8015	8266	8096	8132	7517	7291	7228	8054	7904	8027	7957	9079	9226	7268	8018	8217	7272	8587	4031	4087	7906	7831	3766	3913	3039	3979	4471	4080	9115	8482	7282	14080	
IL061	3362	7057	7331	7565	7372	7076	7116	6913	7892	7227	7894	2644	7040	7111	7485	7101	6932	7730	7404	7594	7325	7210	6907	6896	7264	6963	7093	6809	7038	7087	6761	6955	6938	6801	6638	6855	7433	7239	7130	7029	7334	6901	6432	7767	3418	3443	7227	7326	3147	3227	2813	3387	3671	3456	7436	7065	6846	7727	10438	
IL062	2642	5785	5809	5684	7375	5732	5532	5734	6093	5896	6171	2256	5550	5696	5794	5593	5707	6001	5832	5576	5659	7322	7254	5753	5779	5235	5610	5685	5822	5713	5591	5292	5243	5668	5532	5799	5503	5871	5832	5369	5415	5853	5426	6153	2729	2738	5638	5694	2536	2555	2440	2715	2865	2729	6667	5847	6173	6010	5811	9329	
IL063	3705	7394	7778	8049	7882	7412	7537	7224	8255	7726	8445	2801	7426	7436	7951	7544	7125	8304	7856	8246	7866	7667	7256	7372	7702	7200	7602	7053	7331	7489	7124	7315	7221	7246	7089	7324	8040	7635	7575	7459	7791	7338	6591	8310	3786	3813	7792	7842	3480	3594	2971	3742	4098	3819	7819	7515	6986	8326	7506	5898	12520	
IL065	3570	7235	7205	6833	7582	7189	6537	7419	7502	7736	7665	2753	6443	6643	7020	6537	7030	7982	7299	6875	7119	7361	6993	6861	7334	6183	6876	6992	7186	7087	6782	6276	6155	6755	6810	7628	6732	7711	7758	6297	6634	7702	6233	7587	3631	3668	6775	6864	3333	3451	2903	3606	3907	3658	7525	7309	6479	8107	6863	5745	7301	10981	
IL066	3561	6828	7389	8334	7286	6844	7454	6491	8065	6914	8183	2727	7525	7411	7885	7642	6601	7577	7435	8567	7731	7124	6742	6834	7300	7591	7350	6527	6773	7120	6641	7712	7582	6720	6661	6602	9118	7063	6785	7773	8820	6638	6289	8045	3620	3662	7847	7934	3332	3441	2873	3582	3925	3654	7467	6899	6979	7609	7290	5580	7752	6512	10259	
IL067	3833	7813	8182	8539	8325	7777	7802	7693	8837	8124	8975	2890	7744	7776	8346	7893	7747	8843	8260	9103	10155	8543	7596	8412	9110	8213	8225	7451	7734	8397	7974	8257	8025	8572	7435	8728	8467	9448	8060	7834	8609	9430	6857	9358	3888	3919	8837	8295	3553	3685	3024	3839	4227	3939	8267	8067	7349	9378	7963	6157	8464	8439	8154	18163	
IL069	3040	6682	7187	6988	6816	6600	6730	6055	7361	6321	7425	2484	6624	7078	7301	6659	6439	7229	7318	7350	6946	6545	6912	6757	7007	6862	7217	6498	6331	6837	6269	6875	6649	6279	6654	6210	7034	6790	6266	6658	6830	6436	6588	7447	3135	3146	6772	7195	2895	2956	2687	3099	3325	3144	7044	6681	6518	6900	6688	5473	6857	6103	6871	7179	12648	
IL070	3660	7478	7669	7396	7816	7495	6931	7466	8328	7870	8338	2757	6812	7019	7461	6921	7230	8399	7762	7410	7143	7548	7181	7076	7541	6558	7106	7069	9030	7326	6845	6606	6524	6981	6930	7392	7156	7552	7705	6714	7047	8166	6507	8179	3675	3692	7112	7174	3397	3499	2895	3616	3968	3714	7873	7519	6666	8401	7155	5864	7548	7371	6967	7991	6505	10955	
IL071	3961	7228	7856	9085	7921	7274	7837	7104	8735	7496	8677	2835	7742	7635	8292	7915	6992	8634	7920	9255	8047	7476	6977	7101	7849	8040	7623	6813	7109	7449	6844	8019	7964	7027	6954	6904	8898	7455	7304	8116	8800	7100	6413	8422	3919	3991	8211	8263	3640	3785	2963	3882	4322	3944	7716	7243	6930	8703	7582	5525	8722	7492	8541	8888	6980	7462	12116	
IL072	3441	7064	7378	7582	7489	7083	7111	6858	8352	7259	8492	2701	7123	7225	7565	7191	6903	7655	7422	8032	7371	7344	7040	6971	7381	6906	7174	6858	7420	7221	6821	7029	6959	6871	6777	6989	7488	7231	7120	7131	7326	7729	6444	8388	3531	3558	7371	7459	3236	3339	2880	3486	3756	3538	7392	7178	6878	7673	7316	5920	7580	6931	7338	8238	6715	7576	7593	9744	
IL073	3555	7498	8233	8139	7638	7495	7630	6972	8212	7383	8305	2741	7443	7827	8281	7529	7356	8195	8283	8154	7895	7460	7094	7156	7841	7350	7737	7164	7275	7670	6956	7414	7324	7054	7344	7029	8004	7701	7223	7480	7847	7032	7120	8136	3620	3658	7692	7765	3360	3445	2911	3587	3893	3637	8008	7595	6993	8227	7489	5834	8649	6906	7837	8270	7188	7413	8465	7501	10807	
IL075	3524	7966	8098	7190	7631	7490	6954	7832	7682	7741	7885	2762	6831	7294	7661	6891	7845	8576	8186	7261	7283	7480	7133	7100	7617	6430	7379	7755	7277	7499	6861	6556	6436	6958	7445	7342	7123	8179	8220	6669	6891	7298	7039	7784	3603	3647	7108	7150	3315	3423	2912	3580	3897	3660	8377	7731	7073	8591	7101	5997	9191	7339	6917	7886	6656	7447	7703	7196	8244	11546	
IL076	3383	7632	7333	6717	7248	7097	6540	7335	7273	7391	7384	2662	6400	6697	7022	6445	7105	7921	7415	6725	6757	7102	6826	6762	7091	6059	6807	6978	7038	6975	6573	6145	6068	6644	6820	7069	6589	7481	7622	6259	6438	7043	6445	7302	3476	3482	6586	6652	3211	3298	2841	3417	3714	3504	7656	7234	6559	7922	6792	5699	7091	7123	6444	7436	6299	7153	6730	6813	7038	7435	9215	
IL077	3462	7144	7904	7712	7242	7217	7351	6637	7739	7048	7890	2682	7191	7632	7997	7286	6954	7971	7953	7916	7697	7130	6995	7052	7549	7050	7535	6973	6922	7414	6700	7138	7005	6811	7074	6800	7702	7436	6933	7302	7474	6825	6924	7924	3544	3572	7473	7551	3243	3363	2857	3515	3830	3581	8960	7403	8375	7862	7236	7024	7652	6706	7770	7912	7189	7136	7822	7239	7889	7406	6712	16468	
IL078	3827	7816	8730	8702	8097	7924	8034	7370	8682	7882	8816	2835	7770	8171	8780	7893	7707	10047	8828	9350	8367	7873	8055	8768	8333	7868	8159	7484	7608	8079	7196	7826	7685	7328	7603	7487	8550	8853	7980	7916	8321	7707	7300	9555	3858	3907	8159	8261	3558	3686	2993	3848	4226	3899	9027	8010	7278	9052	7799	6882	8401	8283	8377	9024	8139	7889	9527	7821	8629	8051	7259	10145	16901	
IL079	3795	8414	8591	7764	8149	8036	7353	8362	8291	8242	8406	2831	7140	7534	8058	7226	8153	9654	8654	7911	7619	7836	7426	7376	8098	6847	7695	8012	7657	7835	7114	6912	6823	7275	7713	7661	7616	8618	8776	7072	7433	7754	7194	8195	3842	3890	7477	7579	3541	3690	2984	3791	4176	3880	8865	8081	7279	9687	7489	5962	7994	7780	7362	8530	6972	7942	8072	7529	7928	8590	7750	7705	8702	11363	
IL082	3856	7743	7937	8027	10188	7688	7328	7791	8541	8290	8577	2833	7255	7282	7847	7342	7478	8854	8026	8593	7555	9787	9256	7383	7854	7147	7412	7285	7701	7538	7129	7027	6989	7259	7142	7727	7707	7923	8080	7121	7584	7901	6594	8367	3852	3885	7611	7712	3556	3677	2979	3788	4196	3896	9284	7699	7964	8897	7553	9048	8079	7771	7723	8589	7035	8043	8206	7605	7781	7897	7372	9709	10541	8380	16861	
IL084	3665	6922	7471	8496	7429	6925	7531	6610	8212	7087	8379	2751	7614	7534	8049	7735	6666	7782	7526	8781	7856	7229	6839	6946	7401	7702	7440	6612	6863	7199	6721	7786	7646	6837	6757	6698	8563	7158	6929	7868	8284	6779	6318	8210	3697	3744	7992	8062	3408	3527	2890	3664	4028	3727	7369	7035	6828	7792	7334	5541	7938	6626	8262	8305	6970	7077	8718	7448	7890	7028	6525	7671	8449	7505	7605	9964	
IL086	3316	7574	7677	6835	7164	7205	6712	7445	7289	7207	7375	2613	6490	6890	7172	6537	7410	8183	7726	6801	6922	7035	6720	6697	7234	6218	7045	7299	6942	7134	6543	6293	6179	6603	6971	6903	6677	8521	7714	6354	6554	6880	6779	7310	3380	3400	6686	6734	3119	3206	2793	3333	3607	3392	7951	7197	6853	8198	6787	5677	7080	6893	6574	7410	6513	7107	6776	6821	7178	7657	7091	6959	7487	7932	7253	6637	9498	
IL087	3503	6668	7256	8141	7089	6720	7286	6363	7871	6790	8006	2695	7397	7284	7728	7503	6480	7368	7285	9115	7573	6987	6586	6713	7292	7462	7189	6428	6645	7138	6520	7576	7456	6775	6573	6425	8154	6909	6628	7641	7891	6515	6199	7875	3560	3597	7677	7759	3265	3388	2861	3527	3831	3586	7097	6833	6657	7557	7130	5410	7625	6379	7922	8310	6756	6834	8262	7555	7652	6811	6342	7437	8094	7187	7233	8071	6472	9634	
IL088	3474	7096	7138	6742	7523	7056	6474	7129	8074	7594	8302	2731	6489	6708	7001	6548	6935	8097	7213	6943	6754	7404	7707	7268	7013	6035	6748	6867	7739	6905	6627	6166	6020	6705	6669	7367	6696	7289	7507	6325	6463	9055	6206	8465	3573	3596	6742	6826	3291	3461	2884	3538	3838	3597	7857	7211	6599	7773	6849	7027	7265	7248	6513	7541	7036	7935	6796	7679	6897	7378	6961	8296	8937	7592	9421	6666	6814	6415	14060	
IL094	3471	3423	3510	3586	3575	3385	3302	3409	3605	3619	3670	2722	3413	3369	3516	3466	3308	3761	3541	3633	3456	3491	3311	3291	3466	3221	3404	3241	3390	3355	3226	3302	3216	3254	3299	3446	3553	3500	3572	3349	3476	3450	2979	3627	3553	3561	3569	3564	3247	3350	2866	3528	3846	3589	3566	3445	3129	3768	3254	2675	3580	3454	3468	3675	3026	3463	3662	3364	3447	3482	3305	3381	3649	3632	3639	3507	3262	3401	3395	11342	
IL095	3525	3457	3535	3604	3605	3385	3314	3441	3626	3658	3687	2722	3413	3378	3530	3464	3324	3812	3563	3656	3459	3484	3336	3302	3500	3245	3406	3252	3404	3388	3221	3298	3214	3283	3310	3465	3568	3499	3582	3358	3497	3477	2979	3633	3573	3574	3592	3575	3253	3387	2847	3547	3863	3598	3577	3483	3119	3824	3254	2661	3599	3470	3465	3694	3030	3502	3707	3366	3460	3472	3313	3411	3691	3654	3667	3545	3268	3419	3433	9031	11322	
IL096	4230	3587	3714	3891	3814	3535	3483	3674	3900	3878	3866	3189	3482	3398	3654	3560	3444	4192	3737	3924	3603	3616	3381	3388	3692	3386	3515	3305	3519	3492	3283	3379	3327	3375	3393	3574	3761	3637	3786	3459	3726	3647	2971	3782	4163	4239	3730	3701	3867	4032	3152	4094	4306	3926	3720	3571	3100	4231	3351	2581	3980	3602	3613	3906	3015	3680	4178	3444	3747	3765	3422	3486	3892	3868	3898	3725	3312	3542	3493	3483	3518	11939	
IL097	4042	3431	3544	3716	3642	3386	3351	3536	3738	3681	3676	3142	3339	3287	3501	3419	3477	3953	3675	3928	3462	3496	3333	3307	3538	3308	3403	3214	3409	3394	3192	3317	3237	3247	3263	4067	3595	3505	3659	3348	3564	3553	2912	3725	4013	4053	3561	3558	3784	3873	3104	3933	4076	3750	3579	3424	3022	3993	3244	2567	3593	3454	3476	3724	3052	3545	3829	3332	3473	3429	3315	3368	3865	3777	3748	3576	3215	3396	3410	3366	3394	8664	14135	
IL098	4004	3009	3084	3151	3112	2975	2964	3026	3177	3155	3185	2786	3001	3012	3100	3043	2958	3286	3123	3173	3059	3055	2957	2937	3059	2911	3003	2904	3001	3007	2876	2925	2882	2890	2914	3057	3114	3096	3131	2963	3061	3058	2704	3155	4270	6705	3108	3121	3931	4028	5583	6552	3463	3297	3160	3044	2825	3288	2932	2439	3142	3058	3058	3215	2728	3074	3208	2968	3050	3045	2961	3014	3207	3183	3180	3083	2889	2999	3026	2991	2980	3424	3368	8582	
IL099	6347	3347	3432	3504	3460	3305	3260	3345	3543	3530	3553	3003	3303	3290	3421	3354	3271	3742	3457	3577	3413	3391	3289	3315	3378	3187	3328	3202	3312	3289	3152	3210	3157	3194	3212	3384	3462	3487	3541	3271	3391	3381	2927	3583	6344	4814	3464	3467	4259	4402	5471	6505	3881	3662	3469	3372	3033	3674	3199	2612	3501	3373	3362	3583	2972	3410	3575	3298	3387	3377	3259	3315	3662	3550	3544	3427	3173	3326	3333	3295	3311	3805	3717	3988	12143	
IL100	3588	3382	3460	3517	3482	3313	3299	3395	3546	3544	3587	2861	3348	3301	3459	3378	3269	3673	3479	3538	3405	3403	3288	3271	3411	3201	3324	3217	3349	3311	3172	3233	3180	3209	3263	3394	3471	3445	3490	3292	3406	3389	2987	3527	3646	3675	3461	3476	3370	3452	3026	3648	7931	8198	4375	3405	4441	3672	3275	3206	3510	3412	3643	3603	3026	3451	3560	3307	3410	3412	3290	5938	3600	3552	4896	3444	3212	3325	3354	3341	3346	3561	3489	3156	3433	13725	
IL101	3744	3245	3322	3451	3404	3188	3129	3269	3472	3462	3482	2956	3208	3155	3331	3260	3203	3764	3407	3552	3287	3317	3252	3327	3300	3084	3190	3047	3231	3183	2998	3103	3032	3070	3093	3405	3381	3430	3472	3168	3307	3347	2783	3539	3807	3797	3360	3394	3554	3612	3000	3738	3830	3572	3407	3260	2903	3659	3072	2456	3399	3258	3260	3519	2891	3344	3540	3152	3257	3257	3120	3221	3701	3462	3550	3325	3034	3206	3249	3212	3218	3958	3876	3141	3552	3516	14488	
IL102	5126	3125	3218	3282	3249	3096	3029	3126	3317	3325	3367	2853	3103	3086	3223	3162	3029	3439	3245	3352	3199	3177	3039	3046	3140	2966	3109	2980	3100	3094	2948	3018	2952	2986	3005	3152	3261	3199	3280	3064	3175	3161	2731	3365	4679	4358	3241	3259	3902	4019	3758	4557	3681	3447	4151	3169	4210	3443	3020	3004	3295	3175	3404	3360	2794	3216	3344	3091	3168	3170	3046	5974	3365	3312	4684	3219	2983	3113	3166	3142	3129	3593	3469	3645	4619	5853	3328	14194	
IL103	3333	2914	2999	3049	3040	2877	2858	2931	3080	3095	3114	2691	2914	2886	3001	2960	2849	3220	3024	3120	2979	2990	2885	2862	2947	2772	2900	2803	2892	2882	2766	2823	2731	2800	2821	2996	3032	3003	3049	2861	2953	2978	2576	3099	3395	3392	3042	3050	3120	3191	2772	3351	3405	3195	3056	2967	2696	3211	2833	2332	3057	2953	2944	3117	2620	2988	3095	2892	2951	2958	2844	3176	3132	3114	3120	2993	2786	2917	3148	2870	2897	3457	3425	2890	3196	3005	3288	2998	12364	
IL104	4311	3661	3795	3928	3904	3607	3558	3738	3953	3963	3969	3368	3573	3508	3732	3665	3655	4258	3819	3996	3706	3701	3512	3524	3769	3430	3620	3423	3608	3603	3377	3465	3394	3474	3494	3796	3879	3719	3865	3545	3767	3761	3081	3875	4363	4419	3838	3826	4030	4171	3303	4271	4454	4051	3806	3658	3190	4264	3432	2706	3869	3691	3673	3984	3131	3767	4103	3542	3702	3662	3504	3607	3972	3956	3977	3797	3418	3616	3616	3609	3640	5863	5588	3544	3953	3724	4082	3731	3595	17160	
IL105	3852	7542	7868	8171	8177	7574	7494	7675	8584	8004	8390	2844	7305	7297	7831	7406	7404	8745	7964	8132	7622	7842	7356	7315	7913	7331	7457	7168	7608	7500	7091	7276	7255	7252	7044	7438	7830	7759	7801	7315	7829	7644	6566	8208	3804	3837	7652	7730	3552	3656	2962	3748	4142	3858	8345	7524	6894	8919	7577	7053	8910	7380	7635	8497	6808	7828	8480	7610	8069	7903	7195	8452	9628	8159	10167	7690	7174	7418	9047	3586	3623	3972	3743	3159	3510	3526	3484	3309	3132	3928	13522	
IL106	3471	6937	7328	7623	7323	6955	7092	6748	7999	7138	7824	2676	7067	7057	7493	7176	6790	7656	7397	8375	7289	7571	6788	6920	7203	7308	7119	6660	6885	7020	6718	7016	6949	6853	6663	6755	7549	7093	6982	7128	7443	6821	6329	7687	3502	3547	7336	7405	3223	3341	2843	3476	3778	3549	7301	7044	6652	7674	7128	5623	7581	6682	7371	7816	6568	7063	7725	7152	7457	7006	6622	7187	7809	7407	7467	7492	6652	7221	6659	3360	3363	3480	3350	2987	3278	3319	3176	3088	2848	3565	7576	10358	
IL107	2940	5870	6287	7433	6155	5933	6544	5591	6856	5816	6873	2411	6546	6505	6766	6586	5805	6274	6332	7468	6682	6141	5883	5982	6306	7173	6337	5716	5915	6186	5884	7455	7067	5894	5785	5624	7022	6075	5741	6739	6918	5647	5679	6835	2998	3021	6668	6790	2796	2835	2594	2979	3178	3017	6394	5936	6119	6330	6449	5094	6563	6406	6999	7106	6406	5974	7691	6452	6756	5909	5605	6930	8311	6273	6872	7008	5786	6836	5631	2919	2915	2917	2894	2668	2873	2905	2771	2690	2540	2996	6544	6420	10571	
IL108	3746	3651	3729	3851	3830	3582	3496	3690	3908	3871	3896	2807	3575	3490	3692	3647	3506	4109	3778	3866	3633	3671	3472	3444	3717	3404	3552	3386	3565	3554	3342	3446	3389	3417	3433	3611	3770	3684	3808	3516	3728	3677	3086	3809	3743	3732	3764	3761	3423	3559	2917	3699	4071	3795	3770	3621	3233	4151	3430	2737	3792	3625	3642	3916	3127	3703	3976	3504	3625	3641	3480	3533	3896	3882	3911	3706	3410	3570	3569	9636	9310	3750	3615	3092	3445	3480	3390	3263	3007	3861	3901	3541	3019	12448	
IL109	3825	8673	8413	7695	8396	8015	7298	8273	8825	8460	8907	2866	7150	7413	7940	7251	8033	9318	8476	7764	7545	8097	7678	7500	8072	6801	7639	7768	8267	7765	7239	6862	6795	7379	7578	7899	7538	8425	8651	6988	7366	8905	7042	8726	3858	3883	7523	7582	3563	3687	2984	3793	4199	3886	9017	8149	7143	9372	7552	7323	8126	8524	7296	8689	6872	8556	8320	8033	7890	8549	7918	8414	10245	9005	10374	7415	7764	7091	10281	3624	3667	3917	3697	3172	3556	3568	3463	3343	3109	3988	9900	7433	6685	3895	13844	
IL110	3771	8314	8117	7515	8118	7789	7138	7977	8518	8215	8753	2837	6995	7252	7769	7105	7707	8989	8187	7674	7457	7867	7442	7296	7800	6675	7498	7549	8028	7542	7039	6767	6641	7152	7317	7677	7449	8186	8433	6843	7221	8468	6797	8590	3829	3871	7411	7413	3512	3650	2973	3787	4172	3864	8644	7880	6933	9007	7317	6668	7923	7740	7168	8334	6675	8234	7665	7640	7600	8150	7604	7980	8903	8632	9149	7309	7502	7017	9114	3632	3654	3842	3655	3153	3523	3566	3445	3354	3098	3939	8780	7244	5982	3858	10179	11495	
IL111	3482	7779	7592	6901	7541	7318	6676	7428	7904	7589	8057	2721	6577	6865	7219	6644	7303	8183	7655	6960	6943	7355	7055	6860	7302	6193	6971	7152	7519	7152	6637	6295	6218	6738	6914	7251	6810	7597	7784	6401	6644	7928	6590	7926	3560	3592	6798	6873	3294	3390	2884	3532	3825	3597	7788	7435	6625	8220	6906	5836	7311	8043	6643	7815	6390	7683	7502	7341	7191	7586	7301	6929	8377	8038	7891	6733	7125	6503	7869	3400	3413	3520	3383	3033	3331	3359	3219	3137	2927	3619	7419	6791	6426	3593	9379	8467	12864	
IL112	3684	8158	7901	7357	7942	7600	7005	7885	8366	7988	8390	2794	6781	7059	7539	6887	7612	8743	7977	7393	7178	7590	7208	7049	7649	6537	7250	7353	7740	7364	6848	6551	6502	7006	7071	7478	7140	7948	8129	6690	7067	8286	6695	8176	3690	3738	7097	7152	3440	3562	2919	3655	4016	3754	8495	7626	7301	8784	7185	6169	7875	7610	7064	8076	6488	8001	7707	7647	7610	8116	7384	7733	8037	8337	8615	7055	7369	6786	8079	3517	3545	3810	3593	3101	3418	4043	3339	3803	3023	3822	7947	7079	6011	3761	9280	8784	8244	11312	
IL113	3253	6310	6026	5424	5939	5906	5468	6059	6281	5879	6275	2408	5306	5633	5743	5318	6021	6286	6045	5316	5522	5877	5722	5624	5896	5083	5608	5889	6102	5812	5571	5071	5092	5582	5646	5739	5252	6136	6078	5124	5249	6372	5626	6211	3190	3133	5328	5415	2834	2856	3338	3565	2983	2857	6312	5942	5740	6303	5724	5303	5706	5721	5277	5958	5439	6102	5311	5964	5805	6046	5977	5723	5917	6229	6107	5212	5945	5177	6330	2752	2736	2750	2718	2787	3709	2923	2593	3660	2396	2865	5904	5491	4928	2833	6937	6571	6387	6518	9592	
IL114	2698	6487	6213	5563	6112	6066	5643	6180	6458	6095	6513	2253	5482	5819	5959	5494	6157	6438	6242	5503	5744	6062	5962	5763	5959	5210	5795	6048	6278	5901	5645	5252	5221	5661	5820	5919	5441	6349	6284	5268	5390	6573	5747	6472	2763	2768	5555	5634	2560	2599	2460	2744	2898	2766	6764	6062	5791	6440	5849	6163	5905	5985	5413	6154	5577	6301	5551	6226	5937	6352	6082	6426	6963	6424	7222	5417	6131	5336	7566	2677	2675	2637	2587	2469	2658	2707	2485	2483	2339	2741	6988	5605	5091	2751	8222	7359	6719	6764	5973	8830	
IL115	2484	5173	5532	6115	5355	5229	5780	4870	5972	4996	6028	2128	5823	5872	5967	5836	5240	5927	5547	6173	5890	5340	5269	6007	5519	5898	5650	5118	5161	5476	5259	5950	5915	5260	5172	4951	6156	5786	5168	5982	6082	4957	5185	6516	2552	2570	5868	5957	2373	2380	2362	2560	2666	2556	5400	5220	5563	5386	5747	4748	5744	4863	6116	6011	5659	5166	6172	5765	5994	5220	4977	5815	6626	5389	5398	6158	5154	6018	4917	2492	2499	2430	2398	2326	2542	2518	2370	2307	2188	2526	5623	5677	5763	2546	5325	5163	5033	5111	4638	4713	7584	
IL116	2894	5809	6250	7010	6080	5868	6456	5519	6798	5718	6871	2372	6523	6486	6716	6567	5751	6191	6268	7056	7138	6014	5818	5930	6192	6592	6309	5688	5839	6101	5981	6659	6586	5889	5776	5927	6977	6439	5632	6677	6962	6088	5641	6933	2957	2983	6641	6724	2761	2793	2581	2941	3152	2995	6119	5875	6064	6239	6362	5066	6526	5696	6896	7370	6172	5889	7010	6424	6703	5895	5579	6491	6873	6112	6162	6938	5714	6796	5549	2881	2862	2867	2813	2619	2844	2879	2689	2654	2487	2967	6396	6358	6299	2973	6053	5910	5668	5828	4931	5039	5991	8380	
IL117	2632	5370	5758	6393	5601	5420	5994	5079	6237	5218	6274	2217	6011	5993	6152	6093	5346	5639	5774	6434	6222	5576	5373	5504	5738	6130	5786	5298	5366	5689	5705	6165	6134	5455	5342	5207	6384	5605	5173	6189	6416	5260	5304	6271	2690	2709	6097	6180	2505	2536	2419	2685	2832	2703	5607	5421	5685	5814	5948	4846	5967	5108	6351	6848	5800	5401	6409	5933	6200	5403	5178	5958	6301	5611	5656	6355	5316	6229	5100	2615	2615	2576	2546	2432	2601	2639	2433	2419	2266	2668	5863	5888	5917	2687	5539	5397	5202	5334	4743	4829	5771	6146	9208	
IL118	2846	5703	6122	6838	5965	5796	6347	5380	6628	5598	6716	2364	6395	6403	6587	6483	5593	6036	6141	6890	6623	6367	5712	5854	6498	7021	6595	5599	5732	5997	6183	7045	6838	5764	5722	5512	6876	5950	5501	6520	7030	5572	5556	6998	2919	2959	7251	6736	2719	2753	2556	2913	3101	2947	5975	5950	5986	6438	6268	5000	6393	5495	6765	8198	6087	5715	6860	6304	6597	5751	5491	6361	6771	5985	6016	6800	5642	6654	5416	2832	2822	2827	2749	2588	2824	2842	2628	2622	2459	2932	6256	6224	6209	2915	5934	5805	5543	5663	4864	4996	5936	6418	6566	9713	
IL119	3526	6711	7257	8284	7175	6768	7371	6456	7947	6773	7981	2696	7370	7258	7746	7531	6561	7502	7327	8355	8023	7243	6601	6748	7470	7824	7422	6454	6740	7024	7129	7881	7732	6666	6583	6738	8211	7342	6654	7603	8325	6941	6194	8110	3536	3599	7992	7861	3296	3376	2854	3522	3846	3594	7177	6901	6671	7953	7188	5395	7577	6576	7980	9815	6765	6841	8404	7236	7696	6761	6346	7336	8151	7215	7320	8028	6459	7761	6297	3401	3400	3572	3435	3013	3305	3349	3248	3107	2911	3619	7570	7224	6915	3586	7162	6983	6497	6796	5233	5383	6209	7226	7149	8374	12502	
IL120	2645	5383	5756	6476	5611	5447	6038	5108	6301	5251	6328	2226	6095	6070	6229	6115	5306	5652	5774	6526	6138	5993	5374	5528	6143	6708	6228	5289	5423	5687	5559	6657	6513	5496	5403	5124	6496	5493	5183	6216	6572	5157	5310	6530	2689	2719	6774	6363	2489	2527	2420	2681	2838	2716	5628	5629	5679	5853	5996	4837	6021	5085	6390	6925	5797	5434	6486	5990	6259	5412	5199	6042	6406	5630	5763	6458	5319	6337	5119	2630	2628	2588	2542	2402	2612	2635	2428	2418	2260	2691	5935	5910	5956	2702	5674	5473	5306	5353	4718	4820	5698	6105	5877	6679	6899	8109	
IL121	4878	3020	3103	3128	3126	3014	2964	3031	3172	3167	3201	2769	3017	3002	3095	3038	2958	3276	3111	3172	3099	3067	2956	2968	3058	2896	3029	2904	3006	3003	2904	2923	2881	2940	2934	3040	3117	3067	3123	2969	3059	3058	2706	3161	4590	4312	3117	3122	3844	3918	5157	5828	3478	3288	3113	3056	2810	3278	2919	2468	3145	3044	3032	3211	2768	3088	3175	3013	3065	3043	2953	3008	3184	3187	3166	3086	2919	3012	3030	3016	3015	3378	3305	3644	6530	3117	3146	6680	2851	3533	3152	2977	2673	3113	3187	3157	3009	3086	4523	2503	2349	2639	2456	2614	2997	2468	11101	
IL122	3062	7029	6914	6229	6660	6662	6124	6565	6829	6681	7008	2505	6113	6593	6696	6148	6593	7142	6952	6236	6414	6579	6414	6329	6540	5700	6497	6556	7173	6512	6155	5814	5716	6174	6385	6495	6183	6875	6841	5863	6020	6688	6276	6976	3181	3195	6240	6290	2925	2995	2725	3169	3367	3191	7061	6751	6220	7139	6345	5532	6572	6445	6084	6807	6087	7208	6190	6592	6604	6905	6535	6452	6792	7085	6737	6140	6567	5992	6770	3083	3072	3056	2965	2766	3020	3053	2871	2853	2672	3173	6596	6227	5403	3164	7442	7281	6893	7066	5826	6079	4966	5426	5071	5374	5953	5081	2790	8363	
